1 0
2 1
3 3
4 4
5 8
6 13
7 11
8 18
9 32
10 27
11 26
12 32
13 36
14 47
15 39
16 47
17 66
18 72
19 73
20 85
21 91
22 79
23 114
24 92
25 110
26 98
27 100
28 106
29 118
30 112
31 129
32 192
33 145
34 136
35 165
36 149
37 152
38 164
39 192
40 198
41 193
42 210
43 199
44 204
45 220
46 234
47 265
48 257
49 248
50 209
51 227
52 254
53 282
54 271
55 286
56 268
57 316
58 270
59 355
60 397
61 324
62 320
63 325
64 356
65 336
66 425
67 443
68 367
69 362
70 494
71 387
72 415
73 498
74 487
75 407
76 442
77 410
78 456
79 456
80 504
81 518
82 519
83 461
84 496
85 519
86 526
87 463
88 591
89 500
90 531
91 561
92 573
93 528
94 645
95 554
96 569
97 693
98 603
99 702
100 642


