1 0
2 1
3 3
4 6
5 7
6 9
7 12
8 19
9 24
10 20
11 24
12 32
13 36
14 39
15 51
16 53
17 62
18 63
19 71
20 102
21 66
22 80
23 82
24 105
25 105
26 103
27 107
28 99
29 107
30 124
31 137
32 142
33 134
34 128
35 161
36 163
37 146
38 181
39 188
40 192
41 170
42 211
43 204
44 201
45 231
46 207
47 247
48 243
49 265
50 256
51 305
52 260
53 261
54 252
55 292
56 336
57 272
58 375
59 358
60 292
61 316
62 340
63 457
64 354
65 369
66 396
67 447
68 405
69 468
70 435
71 424
72 357
73 419
74 442
75 422
76 431
77 470
78 479
79 426
80 493
81 462
82 465
83 450
84 475
85 534
86 526
87 497
88 614
89 507
90 541
91 534
92 654
93 705
94 623
95 539
96 683
97 587
98 675
99 627
100 676


