1 0
2 3
3 4
4 10
5 11
6 18
7 18
8 28
9 36
10 33
11 49
12 44
13 43
14 70
15 60
16 69
17 84
18 78
19 85
20 97
21 101
22 101
23 130
24 115
25 147
26 134
27 136
28 143
29 136
30 153
31 161
32 192
33 167
34 200
35 262
36 191
37 213
38 222
39 224
40 247
41 223
42 257
43 255
44 268
45 254
46 304
47 266
48 280
49 296
50 311
51 308
52 307
53 367
54 351
55 334
56 394
57 435
58 422
59 389
60 367
61 442
62 396
63 397
64 464
65 421
66 464
67 467
68 452
69 477
70 576
71 574
72 461
73 503
74 478
75 501
76 577
77 562
78 512
79 559
80 568
81 579
82 567
83 525
84 587
85 695
86 625
87 596
88 703
89 659
90 619
91 609
92 692
93 629
94 635
95 715
96 677
97 722
98 718
99 737
100 756


