\relax 
\catcode `"\active 
\select@language{dutch}
\@writefile{toc}{\select@language{dutch}}
\@writefile{lof}{\select@language{dutch}}
\@writefile{lot}{\select@language{dutch}}
\@writefile{toc}{\contentsline {section}{\numberline {1}Inleiding}{2}}
\newlabel{code1}{{1}{2}}
\@writefile{lol}{\contentsline {lstlisting}{\numberline {1}Methode voor het aanmaken en willekeurig vullen van een array}{2}}
\newlabel{code2}{{2}{2}}
\@writefile{lol}{\contentsline {lstlisting}{\numberline {2}Methode voor het vergelijken van 2 elemeten uit een array}{2}}
\@writefile{toc}{\contentsline {section}{\numberline {2}Selectionsort}{3}}
\@writefile{toc}{\contentsline {subsection}{\numberline {2.1}Het algoritme}{3}}
\@writefile{toc}{\contentsline {subsection}{\numberline {2.2}De theoretische afleiding van het aantal compares}{3}}
\@writefile{toc}{\contentsline {subsection}{\numberline {2.3}De bekomen resultaten}{4}}
\@writefile{toc}{\contentsline {subsubsection}{\numberline {2.3.1}Experiment 1}{4}}
\@writefile{toc}{\contentsline {subsection}{\numberline {2.4}Conclusie}{4}}
\@writefile{toc}{\contentsline {section}{\numberline {3}Insertionsort}{5}}
\@writefile{toc}{\contentsline {subsection}{\numberline {3.1}Het algoritme}{5}}
\@writefile{toc}{\contentsline {subsection}{\numberline {3.2}De theoretische afleiding}{5}}
\@writefile{toc}{\contentsline {subsection}{\numberline {3.3}De bekomen resultaten}{6}}
\@writefile{toc}{\contentsline {subsubsection}{\numberline {3.3.1}Experiment 1}{6}}
\@writefile{toc}{\contentsline {subsubsection}{\numberline {3.3.2}Experiment 2}{7}}
\@writefile{toc}{\contentsline {subsection}{\numberline {3.4}Conclusie}{7}}
\@writefile{toc}{\contentsline {section}{\numberline {4}Quicksort}{8}}
\@writefile{toc}{\contentsline {subsection}{\numberline {4.1}Basis quicksort variant}{8}}
\@writefile{toc}{\contentsline {subsubsection}{\numberline {4.1.1}Het algoritme}{8}}
\@writefile{toc}{\contentsline {subsubsection}{\numberline {4.1.2}De theoretische afleiding}{8}}
\@writefile{toc}{\contentsline {subsubsection}{\numberline {4.1.3}De bekomen resultaten - Experiment 1}{9}}
\@writefile{toc}{\contentsline {subsubsection}{\numberline {4.1.4}De bekomen resultaten - Experiment 2}{10}}
\@writefile{toc}{\contentsline {subsubsection}{\numberline {4.1.5}Conclusie}{10}}
\@writefile{toc}{\contentsline {subsection}{\numberline {4.2}Andere varianten van quicksort}{11}}
\@writefile{toc}{\contentsline {subsubsection}{\numberline {4.2.1}Variant 1- 3-wegs partitionering}{11}}
\@writefile{toc}{\contentsline {subsubsection}{\numberline {4.2.2}Variant 2 - Lomuto}{12}}
\@writefile{toc}{\contentsline {section}{\numberline {5}Conclusie}{13}}
