1 0
2 3
3 6
4 7
5 15
6 15
7 18
8 23
9 29
10 38
11 34
12 44
13 68
14 73
15 62
16 61
17 71
18 95
19 77
20 86
21 95
22 119
23 127
24 112
25 141
26 118
27 129
28 158
29 189
30 175
31 165
32 162
33 171
34 199
35 204
36 187
37 201
38 203
39 274
40 297
41 244
42 233
43 231
44 237
45 318
46 314
47 262
48 318
49 328
50 335
51 339
52 302
53 387
54 370
55 331
56 344
57 363
58 375
59 359
60 498
61 374
62 433
63 409
64 407
65 408
66 440
67 521
68 493
69 486
70 477
71 535
72 486
73 498
74 603
75 516
76 582
77 616
78 554
79 651
80 618
81 569
82 611
83 689
84 597
85 765
86 661
87 649
88 640
89 781
90 636
91 685
92 790
93 660
94 666
95 667
96 889
97 762
98 729
99 753
100 735


