\relax 
\catcode `"\active 
\select@language{dutch}
\@writefile{toc}{\select@language{dutch}}
\@writefile{lof}{\select@language{dutch}}
\@writefile{lot}{\select@language{dutch}}
\@writefile{toc}{\contentsline {section}{\numberline {1}selectionsort}{1}}
\@writefile{toc}{\contentsline {subsection}{\numberline {1.1}exp}{1}}
\@writefile{toc}{\contentsline {subsection}{\numberline {1.2}Dr}{2}}
\@writefile{toc}{\contentsline {section}{\numberline {2}insertionsort}{3}}
\@writefile{toc}{\contentsline {subsection}{\numberline {2.1}exp}{3}}
\@writefile{toc}{\contentsline {subsection}{\numberline {2.2}dr}{4}}
\@writefile{toc}{\contentsline {section}{\numberline {3}quicksort}{5}}
\@writefile{toc}{\contentsline {subsection}{\numberline {3.1}Version 1 p.289}{5}}
\@writefile{toc}{\contentsline {subsubsection}{\numberline {3.1.1}exp}{5}}
\@writefile{toc}{\contentsline {subsubsection}{\numberline {3.1.2}dr}{6}}
\@writefile{toc}{\contentsline {subsection}{\numberline {3.2}Version2 - p.299}{7}}
\@writefile{toc}{\contentsline {subsubsection}{\numberline {3.2.1}exp}{7}}
\@writefile{toc}{\contentsline {subsubsection}{\numberline {3.2.2}dr}{8}}
\@writefile{toc}{\contentsline {subsection}{\numberline {3.3}Version 3 lomuto}{9}}
\@writefile{toc}{\contentsline {subsubsection}{\numberline {3.3.1}exp}{9}}
\@writefile{toc}{\contentsline {subsubsection}{\numberline {3.3.2}dr}{10}}
